{
  "project_info": {
    "project_number": "872950781137",
    "firebase_url": "https://bandmate-8cbe2.firebaseio.com",
    "project_id": "bandmate-8cbe2",
    "storage_bucket": "bandmate-8cbe2.appspot.com"
  },
  "client": [
    {
      "client_info": {
        "mobilesdk_app_id": "1:872950781137:android:abceae5d2e41b4dbf321f0",
        "android_client_info": {
          "package_name": "com.bandmate.staging"
        }
      },
      "oauth_client": [
        {
          "client_id": "872950781137-41g1j9id3t8s1thn4b29di3m7c76unbs.apps.googleusercontent.com",
          "client_type": 3
        }
      ],
      "api_key": [
        {
          "current_key": "AIzaSyC3kDHJWhAXAE_IoW-vOzdsE1iQYAlwZUM"
        }
      ],
      "services": {
        "appinvite_service": {
          "other_platform_oauth_client": [
            {
              "client_id": "872950781137-41g1j9id3t8s1thn4b29di3m7c76unbs.apps.googleusercontent.com",
              "client_type": 3
            }
          ]
        }
      }
    }
  ],
  "configuration_version": "1"
}
